{
  "statusCode": 200,
  "message": "Get meal histories successfully.",
  "data": [{
    "id": "c4eeec8c-a854-4ed0-b982-bf884a57adf5",
    "image": "/images/m01.jpg",
    "title": "Morning",
    "createAt": "2024-02-01T07:28:26Z"
  }, {
    "id": "bb64ff0a-2f60-4ce1-a187-e6c535eaad48",
    "image": "/images/m02.jpg",
    "title": "Dinner",
    "createAt": "2024-01-09T03:32:29Z"
  }, {
    "id": "b5ce4afa-4319-4670-88b6-bc84b4228eff",
    "image": "/images/m03.jpg",
    "title": "Lunch",
    "createAt": "2023-10-30T02:42:12Z"
  }, {
    "id": "40cfc636-186d-4b6a-9559-bfe354c1b6af",
    "image": "/images/m02.jpg",
    "title": "Morning",
    "createAt": "2024-01-28T01:37:45Z"
  }, {
    "id": "251d34b8-62ed-4e59-abd6-3e7c3994f56f",
    "image": "/images/m01.jpg",
    "title": "Lunch",
    "createAt": "2023-12-07T18:10:18Z"
  }, {
    "id": "9d647eb0-a34b-4a97-8c13-bcd2f368416d",
    "image": "/images/m03.jpg",
    "title": "Morning",
    "createAt": "2023-09-01T20:22:20Z"
  }, {
    "id": "0464c13f-9592-435f-b0a6-f9bf695111cb",
    "image": "/images/m02.jpg",
    "title": "Morning",
    "createAt": "2023-11-04T17:37:09Z"
  }, {
    "id": "a946f15d-ead7-49b6-b6b4-3e687e9302d2",
    "image": "/images/m03.jpg",
    "title": "Morning",
    "createAt": "2023-07-07T06:17:10Z"
  }],
  "meta": {
    "paging": {
      "currentPage": 1,
      "itemsPerPage": 8,
      "totalItems": 18,
      "totalPages": 3,
      "prevPage": null,
      "nextPage": 2
    }
  }
}
